Name,Salary,Age
""Sergey Brin""|""12500""|""32""
""Antony Acenberg""|""10099""|""25""
""John Weak""|""9990""|""31""
""Serg Lavrov""|""12000""|""32""
""Alex Shumskiy""|""18799""|""51""
""John Dilinger""|""10999""|""30""
""Sir Clown""|""12500""|""33""
""Anton Elchin""|""15099""|""25""
""Johnny Mnemonik""|""19999""|""21""
""Serg Gensburg""|""20500""|""24""
""Artem Sidorov""|""21099""|""25""
""Jose Cuervo""|""98000""|""34""
